*{
	border : 1px solid black;
	box-sizing: border-box;
}

body{
}

#main{
	display : grid;
    height: 500px;
}

#menu{
   grid-column-start: 1;
  grid-column-end: 10;
    grid-row-start: 1;
  grid-row-end: 4;
}

#sidebar{
     grid-row-start: 4;
  grid-row-end: 19;

}

#content{
     grid-row-start: 4;
  grid-row-end: 19;
grid-column-end: 10;
    grid-column-start: 2;
}